doorbell_spaghetti/wokwi-logic-5.vcd
$version Generated by Wokwi.com $end
$date Thu, 24 Oct 2024 20:01:31 GMT $end
$timescale 1ns $end
$scope module logic $end
$var wire 1 ! Button $end
$var wire 1 " LED $end
$upscope $end
$enddefinitions $end
#0
1!
#0
1"
#48245438
0"
#48279263
0!
#2728035038
1!
#2728057191
0!
#2728071502
1!
#2728091706
0!
#2728117574
1!
#2728133683
0!
#2728140599
1!
#2728164148
0!
#2728173749
1!
#2728183881
0!
#2728194155
1!
#2728219881
0!
#2728230302
1!
#2728247791
0!
#2728250894
1!
#2728271480
0!
#2728272477
1!
#2728277730
0!
#2728298156
1!
#2728298923
0!
#2728309048
1!
#2728315889
0!
#2728340864
1!
#2728356194
0!
#2728379269
1!
#2728405675
0!
#2728421099
1!
#2728421846
0!
#2728427203
1!
#2728451484
0!
#2728475738
1!
#2728486755
0!
#2728508740
1!
#2728518072
0!
#2728541711
1!
#2728546230
0!
#2728565852
1!
#2728578087
0!
#2728600259
1!
#2728621742
0!
#2728629979
1!
#2728653681
0!
#2728661453
1!
#2728662056
0!
#2728687266
1!
#2728699705
0!
#2728716969
1!
#2728720548
0!
#2728737485
1!
#2728752738
0!
#2728759438
1!
#2728784869
0!
#2728809660
1!
#2728828129
0!
#2728828774
1!
#2728850877
0!
#2728855818
1!
#2728869004
0!
#2728878074
1!
#2728896385
0!
#2728909271
1!
#2728931210
0!
#2728955947
1!
#2728977067
0!
#2728988684
1!
#2729001561
0!
#2729015104
1!
#2729037005
0!
#2729052099
1!
#2729063383
0!
#2729085511
1!
#2729089943
0!
#2729098897
1!
#2729120244
0!
#2729128450
1!
#2729154738
0!
#2729174978
1!
#2729190803
0!
#2729199230
1!
#2729216328
0!
#2729234597
1!
#2729245077
0!
#2729269522
1!
#2729287986
0!
#2729305072
1!
#2729317353
0!
#2729337027
1!
#2729341987
0!
#2729345803
1!
#2729356747
0!
#2729367943
1!
#2729383436
0!
#2729388058
1!
#2729395834
0!
#2729421378
1!
#2729429590
0!
#2729430075
1!
#2729444180
0!
#2729462875
1!
#2729483207
0!
#2729483414
1!
#2729503365
0!
#2729510580
1!
#2729523367
0!
#2729526645
1!
#2729530775
0!
#2729549544
1!
#2729558313
0!
#2729577818
1!
#2729580912
0!
#2729601888
1!
#2729621957
0!
#2729623692
1!
#2729643669
0!
#2729651319
1!
#2729656198
0!
#2729675061
1!
#2729697640
0!
#2729710803
1!
#2729720701
0!
#2729738041
1!
#2729746845
0!
#2729747236
1!
#2729772946
0!
#2729776767
1!
#2729792470
0!
#2729799879
1!
#2729819966
0!
#2729830307
1!
#2729846236
0!
#2729850654
1!
#2729872567
0!
#2729889710
1!
#2729908217
0!
#2729925432
1!
#2729940715
0!
#2729955922
1!
#2729980032
0!
#2729995204
1!
#2729998814
0!
#2730003472
1!
#2730024514
0!
#2730048639
1!
#2730072717
0!
#2730079175
1!
#2730103069
0!
#2730127024
1!
#2730129387
0!
#2730133776
1!
#2730147033
0!
#2730157040
1!
#2730176507
0!
#2730176674
1!
#2730195196
0!
#2730217983
1!
#2730224650
0!
#2730227246
1!
#2730251018
0!
#2730269409
1!
#2730292441
0!
#2730313300
1!
#2730335628
0!
#2730349337
1!
#2730364843
0!
#2730381201
1!
#2811045664
0!
#2811063797
1!
#2811084299
0!
#2811097160
1!
#2811118169
0!
#2811118506
1!
#2811138658
0!
#2811139064
1!
#2811167383
0!
#2811190404
1!
#2811212002
0!
#2811219388
1!
#2811248250
0!
#2811259038
1!
#2811284870
0!
#2811287315
1!
#2811289094
0!
#2811310178
1!
#2811327200
0!
#2811345513
1!
#2811353730
0!
#2811356536
1!
#2811378969
0!
#2811394168
1!
#2811407961
0!
#2811430647
1!
#2811436435
0!
#2811449026
1!
#2811457721
0!
#2811480818
1!
#2811497006
0!
#2811513993
1!
#2811522861
0!
#2811536691
1!
#2811554218
0!
#2811563185
1!
#2811578784
0!
#2811603873
1!
#2811627002
0!
#2811639954
1!
#2811661824
0!
#2811678210
1!
#2811701739
0!
#2811705780
1!
#2811723579
0!
#2811748627
1!
#2811754433
0!
#2811759940
1!
#2811784587
0!
#2811801721
1!
#2811831447
0!
#2811851632
1!
#2811877244
0!
#2811892133
1!
#2811906252
0!
#2811914099
1!
#2811939495
0!
#2811949165
1!
#2811951406
0!
#2811955339
1!
#2811981122
0!
#2811985507
1!
#2812002620
0!
#2812013413
1!
#2812037929
0!
#2812057865
1!
#2812062828
0!
#2812078285
1!
#2812099014
0!
#2812121559
1!
#2812146293
0!
#2812146754
1!
#2812154689
0!
#2812157224
1!
#2812172093
0!
#2812178879
1!
#2812180489
0!
#2812182347
1!
#2812185950
0!
#2812191392
1!
#2812195231
0!
#2812206475
1!
#2812207574
0!
#2812210431
1!
#2812227721
0!
#2812252492
1!
#2812262198
0!
#2812265756
1!
#2812275010
0!
#2812276464
1!
#2812290412
0!
#2812297338
1!
#2812298661
0!
#2812315961
1!
#2812322717
0!
#2812331143
1!
#2812336617
0!
#2812343317
1!
#2812345935
0!
#2812347129
1!
#2812362186
0!
#2812381093
1!
#2812394244
0!
#2812422109
1!
#2812445968
0!
#2812454881
1!
#2812471211
0!
#2812488391
1!
#2812513175
0!
#2812528785
1!
#2812530108
0!
#2812549360
1!
#2812564597
0!
#2812579810
1!
#2812589241
0!
#2812612104
1!
#2812619333
0!
#2812629604
1!
#2812632335
0!
#2812659165
1!
#2812676432
0!
#2812698290
1!
#2812726849
0!
#2812743859
1!
#2812767212
0!
#2812768743
1!
#2812775915
0!
#2812792270
1!
#2812792428
0!
#2812806428
1!
#2812833807
0!
#2812844241
1!
#2812867221
0!
#2812892271
1!
#2812897755
0!
#2812920168
1!
#2812934812
0!
#2812964247
1!
#2812992766
0!
#2813014886
1!
#2813041858
0!
#2813066771
1!
#2813084082
0!
#2813113830
1!
#2813126421
0!
#2813141505
1!
#2813164576
0!
#3061078195
1!
#3061141836
0!
#3061162158
1!
#3061200090
0!
#3061246580
1!
#3061251702
0!
#3061276135
1!
#3061336806
0!
#3061370307
1!
#3061398098
0!
#3061434973
1!
#3061470829
0!
#3061522024
1!
#3061560620
0!
#3061575934
1!
#3061582505
0!
#3061583466
1!
#3061612357
0!
#3061645470
1!
#3061653331
0!
#3061716498
1!
#3061729247
0!
#3061735818
1!
#3061780385
0!
#3061793888
1!
#3061832623
0!
#3061854527
1!
#3061860532
0!
#3061866412
1!
#3061879311
0!
#3061890767
1!
#3061902276
0!
#3061917595
1!
#3061941832
0!
#3061952528
1!
#3062008522
0!
#3062029612
1!
#3062090691
0!
#3062134151
1!
#3062182829
0!
#3062207431
1!
#3062233235
0!
#3062265922
1!
#3062328553
0!
#3062336196
1!
#3062363875
0!
#3062376348
1!
#3062377469
0!
#3062394687
1!
#3062406765
0!
#3062451791
1!
#3062512627
0!
#3062545747
1!
#3062607922
0!
#3062631161
1!
#3062636368
0!
#3062659605
1!
#3062684842
0!
#3062718034
1!
#3062755038
0!
#3062771126
1!
#3062831952
0!
#3062875009
1!
#3062937919
0!
#3062981160
1!
#3063006817
0!
#3063051998
1!
#3063060437
0!
#3063093201
1!
#3161101626
0!
#3161167413
1!
#3161233229
0!
#3161253195
1!
#3161301012
0!
#3161372978
1!
#3161437914
0!
#3161506620
1!
#3161538681
0!
#3161574070
1!
#3161598865
0!
#3161637758
1!
#3161705646
0!
#3161708788
1!
#3161712944
0!
#3161719866
1!
#3161738237
0!
#3161752557
1!
#3161753203
0!
#3161781055
1!
#3161855826
0!
#3161876223
1!
#3161948942
0!
#3161955916
1!
#3162014619
0!
#3162052046
1!
#3162139112
0!
#3162207009
1!
#3162271447
0!
#3162353056
1!
#3162424589
0!
#3162427249
1!
#3162469565
0!
#3162526381
1!
#3162539954
0!
#3162611373
1!
#3162670878
0!
#3162694614
1!
#3162708184
0!
#3162757810
1!
#3162829165
0!
#3162875974
1!
#3162910808
0!
#3162953618
1!
#3163037078
0!
#3163048575
1!
#3163093041
0!
#3163118759
1!
#3163143611
0!
#3361306277
1!
#3361358613
0!
#3361515732
1!
#3361752890
0!
#3361779610
1!
#3362022432
0!
#3362042266
1!
#3362227473
0!
#3362316085
1!
#3362605378
0!
#3362696503
1!
#3362799757
0!
#3362966856
1!
#3363095379
0!
#3363299109
1!
#3427188251
0!
#3427643214
1!
#3427920248
0!
#3428196270
1!
#3428366798
0!
#3428631112
1!
#3428780592
0!
#3429115686
1!
#3429529723
0!
#3628033490
1!
#3628033654
0!
#3628061927
1!
#3628089439
0!
#3628091688
1!
#3628113994
0!
#3628137015
1!
#3628161607
0!
#3628191653
1!
#3628221397
0!
#3628228096
1!
#3628236078
0!
#3628248764
1!
#3628272715
0!
#3628284894
1!
#3628303370
0!
#3628324460
1!
#3628330957
0!
#3628341145
1!
#3628344013
0!
#3628345151
1!
#3628362731
0!
#3628386714
1!
#3628398028
0!
#3628411560
1!
#3628413090
0!
#3628439586
1!
#3628460520
0!
#3628460687
1!
#3628472898
0!
#3628484577
1!
#3628513817
0!
#3628541710
1!
#3628570228
0!
#3628584942
1!
#3628613904
0!
#3628618299
1!
#3628627620
0!
#3628636686
1!
#3628647683
0!
#3628656726
1!
#3628662836
0!
#3628682796
1!
#3628687360
0!
#3628706970
1!
#3628714080
0!
#3628735786
1!
#3628744010
0!
#3628769842
1!
#3628793976
0!
#3628808643
1!
#3628835112
0!
#3628850282
1!
#3628868714
0!
#3628885847
1!
#3628911081
0!
#3628927934
1!
#3628956344
0!
#3628968021
1!
#3628968323
0!
#3628985240
1!
#3629010928
0!
#3629022044
1!
#3629036849
0!
#3629061949
1!
#3629073260
0!
#3629096355
1!
#3629107437
0!
#3629108581
1!
#3629111978
0!
#3629132491
1!
#3629162629
0!
#3629176470
1!
#3629203016
0!
#3629206458
1!
#3629223763
0!
#3629230095
1!
#3629259886
0!
#3629273558
1!
#3629287165
0!
#3629304830
1!
#3629334866
0!
#3629342207
1!
#3629374622
0!
#3629375100
1!
#3629396577
0!
#3629407161
1!
#3629420476
0!
#3629436614
1!
#3629449806
0!
#3629474099
1!
#3629499005
0!
#3629503487
1!
#3629525992
0!
#3629530372
1!
#3629563489
0!
#3629583459
1!
#3629609188
0!
#3629630565
1!
#3629637725
0!
#3629667827
1!
#3629683855
0!
#3629698212
1!
#3629724087
0!
#3629756565
1!
#3629767466
0!
#3629770394
1!
#3629784823
0!
#3629817600
1!
#3629822271
0!
#3629833320
1!
#3629855933
0!
#3629859869
1!
#3629876151
0!
#3629889184
1!
#3629892319
0!
#3629909270
1!
#3629926914
0!
#3629931181
1!
#3629937923
0!
#3629940323
1!
#3629970464
0!
#3629992430
1!
#3630017126
0!
#3630029356
1!
#3630050623
0!
#3630060212
1!
#3630084039
0!
#3630113096
1!
#3630129989
0!
#3630139136
1!
#3727039586
0!
#3727045219
1!
#3727084194
0!
#3727134352
1!
#3727156266
0!
#3727193177
1!
#3727224508
0!
#3727254652
1!
#3727274806
0!
#3727321286
1!
#3727330333
0!
#3727340594
1!
#3727383754
0!
#3727421911
1!
#3727474284
0!
#3727493789
1!
#3727521726
0!
#3727533652
1!
#3727538146
0!
#3727543016
1!
#3727548943
0!
#3727589824
1!
#3727634951
0!
#3727668988
1!
#3727702515
0!
#3727707203
1!
#3727707816
0!
#3727747788
1!
#3727788340
0!
#3727814053
1!
#3727845782
0!
#3727856072
1!
#3727863965
0!
#3727870020
1!
#3727872645
0!
#3727926863
1!
#3727979749
0!
#3728000255
1!
#3728019680
0!
#3728064849
1!
#3728109777
0!
#3728124142
1!
#3728132608
0!
#3728140997
1!
#3728161379
0!
#3728206314
1!
#3728212962
0!
#3728237342
1!
#3728252214
0!
#3728260300
1!
#3728274859
0!
#3728298194
1!
#3728350019
0!
#3728356983
1!
#3728386175
0!
#3728434718
1!
#3728444910
0!
#3728493873
1!
#3728523734
0!
#3728531487
1!
#3728571016
0!
#3728616810
1!
#3728663936
0!
#3728664442
1!
#3728676971
0!
#3728714934
1!
#3728716081
0!
#3728761140
1!
#3728765498
0!
#3728815385
1!
#3728822908
0!
#3728838881
1!
#3728878494
0!
#3728931325
1!
#3728979349
0!
#3728994576
1!
#3729000325
0!
#3729008839
1!
#3729051468
0!
#3729053109
1!
#3729067661
0!
#3944067948
1!
#3944100911
0!
#3944154677
1!
#3944197464
0!
#3944236419
1!
#3944266363
0!
#3944317798
1!
#3944358068
0!
#3944414675
1!
#3944448531
0!
#3944479372
1!
#3944515648
0!
#3944527652
1!
#3944578123
0!
#3944593690
1!
#3944594885
0!
#3944643082
1!
#3944691030
0!
#3944720619
1!
#3944762893
0!
#3944783821
1!
#3944820127
0!
#3944821764
1!
#3944833087
0!
#3944852723
1!
#3944891162
0!
#3944936903
1!
#3944957549
0!
#3944962213
1!
#3945015382
0!
#3945068375
1!
#3945099897
0!
#3945154854
1!
#3945165503
0!
#3945187863
1!
#3945233379
0!
#3945235522
1!
#3945262318
0!
#3945264996
1!
#3945320522
0!
#3945368423
1!
#3945386977
0!
#3945416834
1!
#3945447582
0!
#3945497682
1!
#3945546542
0!
#3945600354
1!
#3945618534
0!
#3945655573
1!
#3945670116
0!
#3945705038
1!
#3945752145
0!
#3945764054
1!
#3945791028
0!
#3945820129
1!
#3945848478
0!
#3945888879
1!
#3945920186
0!
#3945958436
1!
#3945994361
0!
#3946049751
1!
#3946100723
0!
#3946157376
1!
#3946163799
0!
#3946202368
1!
#3946230335
0!
#3946281841
1!
#3946311055
0!
#3946315882
1!
#3946352759
0!
#3946381660
1!
#3946394562
0!
#3946414405
1!
#3946461328
0!
#3946484351
1!
#3946494064
0!
#3946507501
1!
#4011035264
0!
#4011035730
1!
#4011044400
0!
#4011065009
1!
#4011091282
0!
#4011125562
1!
#4011149939
0!
#4011178656
1!
#4011214794
0!
#4011236339
1!
#4011240534
0!
#4011261854
1!
#4011288809
0!
#4011324320
1!
#4011334297
0!
#4011347679
1!
#4011371535
0!
#4011371631
1!
#4011387640
0!
#4011418958
1!
#4011442285
0!
#4011464003
1!
#4011485350
0!
#4011490674
1!
#4011497277
0!
#4011513311
1!
#4011523447
0!
#4011550084
1!
#4011550464
0!
#4011557147
1!
#4011579625
0!
#4011606622
1!
#4011634555
0!
#4011650031
1!
#4011670060
0!
#4011692953
1!
#4011703876
0!
#4011718491
1!
#4011730667
0!
#4011744264
1!
#4011769299
0!
#4011779655
1!
#4011805450
0!
#4011810253
1!
#4011822853
0!
#4011855492
1!
#4011885492
0!
#4011893845
1!
#4011919158
0!
#4011935000
1!
#4011958849
0!
#4011988144
1!
#4011998485
0!
#4011998818
1!
#4012034349
0!
#4012035202
1!
#4012042637
0!
#4012069794
1!
#4012101970
0!
#4012121427
1!
#4012134316
0!
#4012165098
1!
#4012169047
0!
#4012178451
1!
#4012207329
0!
#4012210314
1!
#4012246794
0!
#4012259548
1!
#4012278199
0!
#4012285926
1!
#4012295592
0!
#4012309759
1!
#4012312511
0!
#4012325362
1!
#4012336073
0!
#4012364463
1!
#4012378791
0!
#4012404348
1!
#4012428794
0!
#4012448182
1!
#4012453129
0!
#4012478862
1!
#4012490734
0!
#4012523494
1!
#4012546030
0!
#4012559252
1!
#4012592845
0!
#4012615000
1!
#4012634119
0!
#4012668052
1!
#4012676196
0!
#4012712960
1!
#4012738138
0!
#4012738573
1!
#4012768048
0!
#4012772287
1!
#4012804553
0!
#4012823959
1!
#4012857095
0!
#4012884343
1!
#4012893690
0!
#4012904572
1!
#4012927143
0!
#4012933113
1!
#4012934041
0!
#4012962407
1!
#4012977535
0!
#4012985721
1!
#4013007674
0!
#4013022561
1!
#4013058187
0!
#4013075265
1!
#4013110740
0!
#4013134439
1!
#4013148690
0!
#4013178963
1!
#4013203442
0!
#4013232408
1!
#4013237673
0!
#4161059150
1!
#4161064941
0!
#4161169084
1!
#4161209319
0!
#4161276039
1!
#4161344876
0!
#4161368460
1!
#4161443229
0!
#4161456234
1!
#4161535915
0!
#4161630216
1!
#4161660943
0!
#4161683927
1!
#4161691706
0!
#4161748682
1!
#4161817992
0!
#4161823592
1!
#4161836723
0!
#4161858331
1!
#4161878285
0!
#4161958248
1!
#4161987595
0!
#4162044345
1!
#4162068523
0!
#4162111180
1!
#4162172089
0!
#4162283868
1!
#4162316382
0!
#4162357841
1!
#4162443395
0!
#4162529075
1!
#4162588335
0!
#4162672257
1!
#4162685836
0!
#4162723962
1!
#4162780616
0!
#4162830021
1!
#4162918676
0!
#4162965277
1!
#4598462669
1"
#8961068168
0!
#8961069299
1!
#8961082988
0!
#8961113381
1!
#8961146081
0!
#8961183408
1!
#8961192770
0!
#8961197444
1!
#8961213177
0!
#8961227604
1!
#8961245308
0!
#8961280603
1!
#8961298542
0!
#8961336410
1!
#8961342188
0!
#8961343347
1!
#8961348185
0!
#8961348685
1!
#8961378238
0!
#8961392002
1!
#8961424098
0!
#8961457898
1!
#8961490171
0!
#8961514479
1!
#8961552001
0!
#8961568003
1!
#8961586814
0!
#8961596721
1!
#8961607273
0!
#8961627464
1!
#8961632983
0!
#8961639801
1!
#8961643296
0!
#8961665212
1!
#8961703331
0!
#8961740118
1!
#8961766529
0!
#8961771609
1!
#8961793350
0!
#8961801177
1!
#8961815680
0!
#8961852846
1!
#8961886978
0!
#8961899312
1!
#8961901604
0!
#8961904780
1!
#8961936240
0!
#8961959507
1!
#8961967988
0!
#8961989787
1!
#8962018558
0!
#8962027006
1!
#8962048583
0!
#8962057629
1!
#8962094538
0!
#8962096780
1!
#8962109314
0!
#8962143250
1!
#8962170890
0!
#8962193236
1!
#8962229865
0!
#8962257148
1!
#8962257842
0!
#8962281690
1!
#8962300907
0!
#8962325563
1!
#8962363572
0!
#8962372060
1!
#8962384120
0!
#8962416886
1!
#8962424997
0!
#8962461133
1!
#8962478491
0!
#8962515146
1!
#8962528304
0!
#8962561711
1!
#8962578975
0!
#8962584339
1!
#8962621405
0!
#8962629302
1!
#8962657137
0!
#8962673797
1!
#8962681791
0!
#8962699166
1!
#8962733197
0!
#8962762995
1!
#8962787015
0!
#8962799179
1!
#8962808513
0!
#8962819151
1!
#8962826089
0!
#8962840197
1!
#8962864711
0!
#8962895537
1!
#8962912102
0!
#8962916049
1!
#8962947769
0!
#8962953623
1!
#8962988124
0!
#8963004195
1!
#8963019762
0!
#8963029027
1!
#8963058234
0!
#8963061309
1!
#8963068146
0!
#8963088590
1!
#8963117451
0!
#8963128677
1!
#8963157930
0!
#8963191538
1!
#8963211651
0!
#8963234118
1!
#8963234739
0!
#8963246948
1!
#8963265130
0!
#9061076873
1!
#9061088712
0!
#9061118132
1!
#9061119847
0!
#9061153051
1!
#9061200107
0!
#9061238235
1!
#9061277241
0!
#9061285726
1!
#9061327129
0!
#9061377205
1!
#9061387315
0!
#9061403960
1!
#9061410319
0!
#9061425943
1!
#9061431658
0!
#9061434414
1!
#9061440915
0!
#9061471232
1!
#9061491222
0!
#9061515829
1!
#9061561294
0!
#9061566122
1!
#9061578893
0!
#9061582059
1!
#9061622722
0!
#9061669336
1!
#9061700236
0!
#9061705008
1!
#9061728499
0!
#9061746380
1!
#9061767939
0!
#9061776625
1!
#9061815203
0!
#9061850261
1!
#9061871675
0!
#9061886190
1!
#9061907800
0!
#9061910287
1!
#9061951401
0!
#9061982372
1!
#9062001229
0!
#9062001765
1!
#9062009252
0!
#9062016708
1!
#9062021194
0!
#9062042048
1!
#9062068648
0!
#9062086580
1!
#9062100144
0!
#9062106536
1!
#9062130213
0!
#9062177968
1!
#9062181178
0!
#9062222769
1!
#9062271486
0!
#9062281729
1!
#9062294056
0!
#9062342841
1!
#9062360436
0!
#9062382194
1!
#9062410600
0!
#9062460424
1!
#9062489140
0!
#9062534288
1!
#9062554246
0!
#9062567469
1!
#9062574424
0!
#9062584742
1!
#9062593681
0!
#9062625345
1!
#9062647094
0!
#9062676317
1!
#9062698876
0!
#9062737863
1!
#9062757288
0!
#9062767484
1!
#9062793578
0!
#9062831786
1!
#9062849684
0!
#9062895486
1!
#9062897481
0!
#9062945494
1!
#9062971177
0!
#9063002517
1!
#9063052186
0!
#9063062202
1!
#10411078015
0!
#10411084814
1!
#10411088666
0!
#10411102402
1!
#10411111328
0!
#10411121106
1!
#10411127446
0!
#10411146158
1!
#10411161975
0!
#10411164990
1!
#10411182042
0!
#10411182358
1!
#10411191981
0!
#10411210291
1!
#10411231393
0!
#10411249129
1!
#10411264555
0!
#10411276528
1!
#10411287394
0!
#10411297724
1!
#10411310568
0!
#10411319541
1!
#10411342840
0!
#10411350472
1!
#10411357350
0!
#10411377414
1!
#10411379656
0!
#10411398456
1!
#10411404312
0!
#10411411088
1!
#10411415310
0!
#10411430477
1!
#10411448134
0!
#10411465794
1!
#10411477169
0!
#10411491812
1!
#10411505266
0!
#10411515667
1!
#10411536747
0!
#10411553048
1!
#10411565610
0!
#10411571396
1!
#10411589715
0!
#10411610690
1!
#10411627731
0!
#10411649947
1!
#10411671879
0!
#10411677949
1!
#10411690972
0!
#10411711419
1!
#10411721080
0!
#10411738818
1!
#10411751506
0!
#10411772622
1!
#10411781520
0!
#10411799090
1!
#10411805626
0!
#10411809524
1!
#10411820290
0!
#10411840388
1!
#10411861553
0!
#10411866279
1!
#10411873156
0!
#10411879720
1!
#10411888466
0!
#10411905447
1!
#10411921276
0!
#10411934213
1!
#10411956381
0!
#10411975365
1!
#10411981298
0!
#10411992521
1!
#10412006346
0!
#10412009974
1!
#10412029377
0!
#10412047695
1!
#10412055092
0!
#10412063534
1!
#10412079371
0!
#10412084382
1!
#10412089438
0!
#10412094445
1!
#10412101056
0!
#10412123196
1!
#10412142447
0!
#10412144296
1!
#10412162856
0!
#10412167003
1!
#10412176624
0!
#10412187183
1!
#10412200915
0!
#10412217851
1!
#10412230387
0!
#10412239234
1!
#10412261351
0!
#10412274980
1!
#10412291755
0!
#10412303301
1!
#10412311857
0!
#10412330391
1!
#10412337867
0!
#10412358337
1!
#10412380570
0!
#10412399399
1!
#10412409669
0!
#10412420031
1!
#10412426873
0!
#10412427096
1!
#10412433835
0!
#10412439936
1!
#10412459921
0!
#10412474686
1!
#10412479513
0!
#10412487010
1!
#10412494956
0!
#10412496164
1!
#10412513578
0!
#10412517232
1!
#10412519299
0!
#10412528481
1!
#10412529379
0!
#10412550030
1!
#10412573595
0!
#10412591280
1!
#10412612310
0!
#10412631368
1!
#10412646754
0!
#10412654348
1!
#10412675051
0!
#10412696292
1!
#10412719339
0!
#10412720711
1!
#10412742580
0!
#10412758309
1!
#10412770737
0!
#10412782424
1!
#10412789685
0!
#10412813266
1!
#10412817317
0!
#10412827482
1!
#10412840745
0!
#10412851156
1!
#10412873355
0!
#10412881304
1!
#10412899511
0!
#10412902694
1!
#10412915328
0!
#10412936312
1!
#10412951800
0!
#10412952690
1!
#10412955601
0!
#10412956277
1!
#10412980312
0!
#10412997515
1!
#10413009146
0!
#10413028424
1!
#10413034538
0!
#10413041766
1!
#10413042442
0!
#10413049218
1!
#10413050654
0!
#10413073461
1!
#10413093011
0!
#10413112616
1!
#10413128538
0!
#10413145771
1!
#10413146574
0!
#10413164427
1!
#10413174662
0!
#10413191538
1!
#10413211030
0!
#10413213045
1!
#10413220005
0!
#10413232255
1!
#10413246203
0!
#10413256671
1!
#10413276387
0!
#10413288602
1!
#10413304946
0!
#10413323272
1!
#10413347234
0!
#10413369377
1!
#10413372189
0!
#10511090459
1!
#10511096207
0!
#10511111721
1!
#10511123133
0!
#10511147494
1!
#10511170974
0!
#10511196157
1!
#10511216030
0!
#10511221837
1!
#10511241873
0!
#10511257037
1!
#10511279155
0!
#10511292217
1!
#10511323356
0!
#10511345456
1!
#10511348439
0!
#10511355008
1!
#10511383389
0!
#10511397355
1!
#10511403554
0!
#10511422727
1!
#10511438737
0!
#10511470849
1!
#10511475447
0!
#10511498701
1!
#10511512911
0!
#10511527709
1!
#10511528492
0!
#10511552655
1!
#10511555687
0!
#10511567047
1!
#10511595016
0!
#10511617693
1!
#10511646197
0!
#10511667537
1!
#10511695088
0!
#10511713781
1!
#10511736280
0!
#10511757151
1!
#10511788473
0!
#10511794506
1!
#10511812274
0!
#10511841935
1!
#10511859977
0!
#10511889601
1!
#10511913903
0!
#10511921636
1!
#10511954172
0!
#10511954461
1!
#10511979564
0!
#10511980318
1!
#10512012598
0!
#10512023163
1!
#10512029123
0!
#10512054840
1!
#10512078508
0!
#10512091924
1!
#10512111736
0!
#10512131617
1!
#10512161368
0!
#10512190501
1!
#10512193718
0!
#10512216010
1!
#10512243162
0!
#10512243462
1!
#10512263789
0!
#10512276411
1!
#10512308892
0!
#10512323444
1!
#10512348635
0!
#10512350689
1!
#10512376660
0!
#10512397204
1!
#10512425149
0!
#10512444743
1!
#10512450827
0!
#10512476632
1!
#10512495487
0!
#10512515083
1!
#10512516946
0!
#10512520553
1!
#10512540932
0!
#10512541361
1!
#10512562350
0!
#10512585271
1!
#10512609445
0!
#10512609756
1!
#10512636316
0!
#10512658244
1!
#10512686994
0!
#10512698694
1!
#10512713777
0!
#10512731483
1!
#10512747739
0!
#10512778751
1!
#10512789752
0!
#10512791851
1!
#10512801600
0!
#10512814729
1!
#10512827101
0!
#10512834416
1!
#10512865874
0!
#10512893014
1!
#10512903464
0!
#10512914878
1!
#10512921960
0!
#10512946055
1!
#10512971183
0!
#10512979854
1!
#10512995399
0!
#10513020729
1!
#10513038058
0!
#10513046602
1!
#10513048866
0!
#10513058323
1!
#10513080148
0!
#10513112283
1!
#10513139922
0!
#10513149685
1!
#10513162965
0!
#10513164408
1!
#10513193321
0!
#10513212368
1!
#10513241909
0!
#10513272762
1!
#10513302472
0!
#10513328593
1!
#10513350063
0!
#10513366536
1!
#10513367888
0!
#10513379468
1!
#10513403299
0!
#10513411435
1!
#10513416887
0!
#10513419885
1!
#11477108217
0!
#11477131476
1!
#11477161672
0!
#11477174923
1!
#11477186198
0!
#11477201459
1!
#11477212744
0!
#11477227429
1!
#11477239373
0!
#11477253296
1!
#11477269435
0!
#11477270552
1!
#11477301756
0!
#11477310126
1!
#11477314512
0!
#11477345665
1!
#11477375426
0!
#11477391811
1!
#11477408863
0!
#11477433327
1!
#11477442712
0!
#11477458776
1!
#11477482783
0!
#11477495592
1!
#11477523213
0!
#11477532482
1!
#11477554776
0!
#11477556848
1!
#11477561716
0!
#11477586562
1!
#11477615019
0!
#11477620012
1!
#11477635886
0!
#11477649404
1!
#11477662471
0!
#11477674118
1!
#11477676583
0!
#11477700489
1!
#11477722424
0!
#11477745367
1!
#11477753761
0!
#11477771688
1!
#11477800653
0!
#11477821419
1!
#11477849548
0!
#11477858575
1!
#11477889133
0!
#11477912450
1!
#11477943199
0!
#11477943310
1!
#11477970569
0!
#11477983849
1!
#11477993063
0!
#11477993427
1!
#11478025023
0!
#11478031340
1!
#11478049398
0!
#11478069240
1!
#11478078011
0!
#11478097174
1!
#11478121332
0!
#11478150451
1!
#11478171768
0!
#11478192518
1!
#11478204165
0!
#11478217102
1!
#11478250367
0!
#11478251864
1!
#11478262111
0!
#11478270644
1!
#11478280807
0!
#11478305450
1!
#11478338871
0!
#11478343559
1!
#11478352678
0!
#11478378804
1!
#11478402550
0!
#11478427381
1!
#11478451499
0!
#11478457181
1!
#11478487996
0!
#11478493773
1!
#11478499512
0!
#11478520151
1!
#11478539675
0!
#11478565153
1!
#11478582478
0!
#11478596500
1!
#11478612456
0!
#11478631195
1!
#11478660889
0!
#11478674987
1!
#11478707077
0!
#11478732274
1!
#11478752190
0!
#11478753141
1!
#11478768155
0!
#11478778696
1!
#11478788041
0!
#11478809198
1!
#11478835915
0!
#11478859006
1!
#11478880868
0!
#11478883907
1!
#11478915722
0!
#11478932990
1!
#11478964778
0!
#11478979837
1!
#11479012078
0!
#11479022335
1!
#11479040210
0!
#11479070670
1!
#11479078205
0!
#11479108085
1!
#11479111914
0!
#11479144341
1!
#11479174322
0!
#11479177325
1!
#11479194654
0!
#11479210155
1!
#11479240769
0!
#11479250561
1!
#11479252902
0!
#11479260095
1!
#11479286378
0!
#11479307888
1!
#11479315743
0!
#11678103952
1!
#11678117754
0!
#11678125782
1!
#11678149535
0!
#11678190458
1!
#11678196513
0!
#11678221545
1!
#11678254338
0!
#11678283738
1!
#11678306472
0!
#11678349296
1!
#11678368906
0!
#11678398875
1!
#11678420792
0!
#11678447963
1!
#11678478886
0!
#11678509471
1!
#11678511741
0!
#11678528380
1!
#11678534294
0!
#11678561987
1!
#11678596197
0!
#11678609307
1!
#11678629494
0!
#11678643209
1!
#11678654447
0!
#11678661143
1!
#11678692630
0!
#11678716943
1!
#11678720106
0!
#11678743116
1!
#11678776888
0!
#11678805016
1!
#11678810166
0!
#11678849513
1!
#11678873610
0!
#11678893133
1!
#11678934643
0!
#11678971366
1!
#11678997776
0!
#11679007945
1!
#11679048295
0!
#11679091667
1!
#11679095952
0!
#11679117515
1!
#11679144724
0!
#11679176891
1!
#11679209709
0!
#11679231688
1!
#11679254452
0!
#11679288252
1!
#11679330152
0!
#11679367444
1!
#11679407170
0!
#11679424222
1!
#11679441003
0!
#11679444248
1!
#11679460864
0!
#11679478085
1!
#11679514147
0!
#11679547743
1!
#11679572610
0!
#11679600842
1!
#11679624865
0!
#11679652533
1!
#11679696239
0!
#11679706391
1!
#11679717746
0!
#11679739955
1!
#11679779023
0!
#11679793378
1!
#11679807810
0!
#11679850628
1!
#11679866400
0!
#11679877581
1!
#11679881366
0!
#11679904565
1!
#11679923097
0!
#11679942964
1!
#11679954469
0!
#11679982780
1!
#11680014449
0!
#11680049723
1!
#11680066383
0!
#11680099859
1!
#11680113575
0!
#11680144099
1!
#11680182941
0!
#11680190083
1!
#11680219197
0!
#11680220382
1!
#11680262542
0!
#11680277305
1!
#11680293923
0!
#11680330384
1!
#11680373493
0!
#11680385017
1!
#11680417123
0!
#11680426109
1!
